{
  "profiles": {
    "Hash.Host": {
      "commandName": "Project",
      "environmentVariables": {
        "ConnectionString": "Data Source=(DESCRIPTION = (ADDRESS = (PROTOCOL = TCP)(HOST = 192.168.1.61)(PORT = 1521)) (CONNECT_DATA = (SERVER = DEDICATED)(SID = orcl))); User ID=HASHER; Password=HASHER"
      }
    }
  }
}